<?xml version="1.0" encoding="iso-8859-1"?>
<!-- Generator: Adobe Illustrator 19.0.0, SVG Export Plug-In . SVG Version: 6.00 Build 0)  -->
<svg version="1.1" id="Capa_1" xmlns="http://www.w3.org/2000/svg" xmlns:xlink="http://www.w3.org/1999/xlink" x="0px" y="0px"
	 viewBox="0 0 512 512" style="enable-background:new 0 0 512 512;" xml:space="preserve">
<g>
	<g>
		<path d="M437,129h-16.346l-30-86H209.346l-30,86H60c-33.084,0-60,26.916-60,60v280h512V204C512,162.645,478.355,129,437,129z
			 M230.654,73h138.691l19.535,56H211.119L230.654,73z M130,439H30V251.384C43.707,262.392,61.092,269,80,269
			s36.293-6.608,50-17.616V439z M130,189c0,27.57-22.43,50-50,50s-50-22.43-50-50c0-16.542,13.458-30,30-30h70V189z M482,439H160
			V159h8.881H437c24.813,0,45,20.187,45,45V439z"/>
	</g>
</g>
<g>
	<g>
		<circle cx="80" cy="199" r="20"/>
	</g>
</g>
<g>
	<g>
		<path d="M300,189c-60.654,0-110,49.346-110,110s49.346,110,110,110s110-49.346,110-110S360.654,189,300,189z M300,379
			c-44.112,0-80-35.888-80-80s35.888-80,80-80s80,35.888,80,80S344.112,379,300,379z"/>
	</g>
</g>
<g>
</g>
<g>
</g>
<g>
</g>
<g>
</g>
<g>
</g>
<g>
</g>
<g>
</g>
<g>
</g>
<g>
</g>
<g>
</g>
<g>
</g>
<g>
</g>
<g>
</g>
<g>
</g>
<g>
</g>
</svg>
