<svg width="25" height="25" viewBox="0 0 25 25" fill="none" xmlns="http://www.w3.org/2000/svg">
<path d="M25 12.2396C25 12.1875 25 12.1875 25 12.1354C24.7917 5.72917 19.7917 0.520833 13.4896 0.0520835C13.2812 0.0520835 13.125 0 12.9167 0H12.8646C12.7604 0 12.6562 0 12.5521 0C12.4479 0 12.3438 0 12.2396 0H12.1875C11.9792 0 11.7708 1.97906e-07 11.6146 0.0520835C5.20833 0.520833 0.208333 5.72917 0 12.1354C0 12.1875 0 12.1875 0 12.2396V12.2917C0 12.3437 0 12.4479 0 12.5C0 19.0625 5.10417 24.4792 11.5104 24.9479C11.7187 24.9479 11.875 25 12.0833 25H12.8646C13.0729 25 13.2812 25 13.4375 24.9479C19.8958 24.4792 25 19.0625 25 12.5C25 12.4479 25 12.3437 25 12.2917V12.2396ZM22.3958 17.1354H19.6875C20 15.8333 20.1562 14.4792 20.2083 13.0208H23.4375C23.3333 14.4792 22.9688 15.8854 22.3958 17.1354ZM13.2812 23.3854V18.6979H17.5521C16.6146 21.3542 15.0521 23.1771 13.2812 23.3854ZM7.44792 18.6979H11.7188V23.3854C9.94792 23.1771 8.38542 21.3542 7.44792 18.6979ZM1.61458 13.0208H4.84375C4.89583 14.4792 5.05208 15.8854 5.36458 17.1354H2.60417C2.03125 15.8854 1.66667 14.4792 1.61458 13.0208ZM2.91667 7.23958H5.46875C5.10417 8.54167 4.89583 9.94792 4.84375 11.4583H1.61458C1.77083 9.94792 2.1875 8.54167 2.91667 7.23958ZM11.7188 1.61458V5.72917H7.65625C8.64583 3.38542 10.1042 1.82292 11.7188 1.61458ZM17.3437 5.67708H13.2812V1.5625C14.8958 1.82292 16.3542 3.38542 17.3437 5.67708ZM17.8646 7.23958C18.2292 8.54167 18.4896 9.94792 18.5417 11.4583H13.2812V7.23958H17.8646ZM11.7188 7.23958V11.4583H6.40625C6.51042 9.94792 6.71875 8.54167 7.08333 7.23958H11.7188ZM6.40625 13.0208H11.7188V17.1354H6.92708C6.61458 15.8854 6.45833 14.4792 6.40625 13.0208ZM13.2812 17.1354V13.0208H18.5938C18.5417 14.4792 18.3854 15.8854 18.0208 17.1354H13.2812ZM20.1562 11.4583C20.1042 9.94792 19.8958 8.54167 19.5312 7.23958H22.0833C22.7604 8.48958 23.2292 9.94792 23.3854 11.4583H20.1562ZM21.0417 5.67708H19.0104C18.5938 4.58333 18.0729 3.59375 17.5 2.8125C18.9062 3.48958 20.1042 4.47917 21.0417 5.67708ZM7.44792 2.8125C6.875 3.64583 6.35417 4.58333 5.9375 5.67708H3.90625C4.89583 4.47917 6.09375 3.48958 7.44792 2.8125ZM3.48958 18.6979H5.72917C6.14583 20.0521 6.77083 21.1979 7.44792 22.1875C5.88542 21.3542 4.53125 20.1562 3.48958 18.6979ZM17.5521 22.1875C18.2292 21.25 18.8021 20.0521 19.2708 18.6979H21.5104C20.4688 20.1562 19.1146 21.3542 17.5521 22.1875Z" fill="#46CCD6"/>
</svg>
